{
    "photos": {
        "page": 1,
        "pages": 19364,
        "perpage": 10,
        "total": 193634,
        "photo": [
            {
                "id": "53454928491",
                "owner": "64073077@N06",
                "secret": "5dc89abc88",
                "server": "65535",
                "farm": 66,
                "title": "Broken Hill's Titanic Memorial (Far West New South Wales, Outback Australia)",
                "ispublic": 1,
                "isfriend": 0,
                "isfamily": 0
            },
            {
                "id": "53455030418",
                "owner": "182747602@N05",
                "secret": "d6961e9c97",
                "server": "65535",
                "farm": 66,
                "title": "Le Colimacon joint project",
                "ispublic": 1,
                "isfriend": 0,
                "isfamily": 0
            },
            {
                "id": "53453871302",
                "owner": "10655856@N04",
                "secret": "a258972ab1",
                "server": "65535",
                "farm": 66,
                "title": "Leonardo DiCaprio and Claire Danes in Romeo + Juliet (1996)",
                "ispublic": 1,
                "isfriend": 0,
                "isfamily": 0
            },
            {
                "id": "53452712152",
                "owner": "189744658@N06",
                "secret": "cda56b9688",
                "server": "65535",
                "farm": 66,
                "title": "Bennington Vermont",
                "ispublic": 1,
                "isfriend": 0,
                "isfamily": 0
            },
            {
                "id": "53453793150",
                "owner": "199844909@N07",
                "secret": "03e5852747",
                "server": "65535",
                "farm": 66,
                "title": "Titanic Quarter",
                "ispublic": 1,
                "isfriend": 0,
                "isfamily": 0
            },
            {
                "id": "53452946104",
                "owner": "10655856@N04",
                "secret": "b369c9622b",
                "server": "65535",
                "farm": 66,
                "title": "Claire Danes in Romeo + Juliet (1996)",
                "ispublic": 1,
                "isfriend": 0,
                "isfamily": 0
            },
            {
                "id": "53452625781",
                "owner": "36611483@N03",
                "secret": "c354126ec3",
                "server": "65535",
                "farm": 66,
                "title": "The Tip of an Iceberg",
                "ispublic": 1,
                "isfriend": 0,
                "isfamily": 0
            },
            {
                "id": "53451404639",
                "owner": "50576141@N03",
                "secret": "7cc2cc1fa0",
                "server": "65535",
                "farm": 66,
                "title": "23-502  Ttanic, Belfast",
                "ispublic": 1,
                "isfriend": 0,
                "isfamily": 0
            },
            {
                "id": "53451372489",
                "owner": "196685683@N08",
                "secret": "19ff20477d",
                "server": "65535",
                "farm": 66,
                "title": "Titanic; (Titanic)",
                "ispublic": 1,
                "isfriend": 0,
                "isfamily": 0
            },
            {
                "id": "53450470940",
                "owner": "199134836@N03",
                "secret": "18e1b3cd49",
                "server": "65535",
                "farm": 66,
                "title": "Bulk Freighter",
                "ispublic": 1,
                "isfriend": 0,
                "isfamily": 0
            }
        ]
    },
    "stat": "ok"
}